{
	"id": "327a5436-78c8-4319-42ad-fe3933fc41cc",
	"name": "Tomcat Api",
	"description": "",
	"order": [
		"07741e06-1d6d-26ce-fc8a-e9584d6b6fbc",
		"61a5d036-52c4-51bb-cbb0-7bd92d528d90",
		"e911865b-d1d8-a198-c7a4-f341b2f48419",
		"55066a0e-a8fa-e790-9dbf-43a0c6cf4424",
		"cedd4eff-8fa5-f719-1da4-58293edffb0f",
		"94bcce50-e4d0-cf7e-2131-fe5cd29e194e",
		"cf0de01e-52e2-1a72-9c8b-714d5efd4bcc",
		"33b91c59-2a1d-3947-7679-8541fd637574",
		"2d98195f-a630-66da-4ef6-6a6097bd22db",
		"f97885b6-f2fd-5277-3287-2dc996738d6f",
		"47a20537-3a21-d7b8-544c-6c19795740c6",
		"fdab993d-854a-c1f5-5c59-0456c023aa48",
		"6f1dfe12-9103-705f-aefd-978ee02378f5",
		"ed03bc61-4b61-4403-7633-00f34e2d35a2",
		"1e92a166-d8ee-72ed-7f92-e9adfb51510d",
		"0a59fced-9418-055c-e079-9577484e8fa7"
	],
	"folders": [],
	"timestamp": 0,
	"owner": "413493",
	"public": false,
	"published": false,
	"requests": [
		{
			"id": "07741e06-1d6d-26ce-fc8a-e9584d6b6fbc",
			"headers": "Content-Type: application/json\n",
			"url": "http://localhost:8080/users",
			"preRequestScript": "",
			"pathVariables": {},
			"method": "POST",
			"data": [],
			"dataMode": "raw",
			"tests": null,
			"currentHelper": "normal",
			"helperAttributes": {},
			"time": 1474011493252,
			"name": "loc => mail sender",
			"description": "",
			"collectionId": "327a5436-78c8-4319-42ad-fe3933fc41cc",
			"responses": [],
			"rawModeData": "{\"name\":\"Ahmet Esmer\", \"email\":\"aesmer@hurriyetemlak.com\", \"password\":\"Password1!\"}"
		},
		{
			"id": "0a59fced-9418-055c-e079-9577484e8fa7",
			"headers": "Content-Type: application/json\n",
			"url": "213.243.38.94/realtyinteraction",
			"preRequestScript": "",
			"pathVariables": {},
			"method": "POST",
			"data": [],
			"dataMode": "raw",
			"tests": null,
			"currentHelper": "normal",
			"helperAttributes": {},
			"time": 1472401137587,
			"name": "prod => realtyinteraction one",
			"description": "",
			"collectionId": "327a5436-78c8-4319-42ad-fe3933fc41cc",
			"responses": [],
			"rawModeData": "{\n \"realtyIdList\":[10844966]\n}\n\n"
		},
		{
			"folder": null,
			"id": "1e92a166-d8ee-72ed-7f92-e9adfb51510d",
			"name": "prod => realtymessage",
			"dataMode": "raw",
			"data": [],
			"rawModeData": "{\"categoryId\":1000020302,\"districtId\":20813,\"realtyId\":10844966}",
			"descriptionFormat": null,
			"description": "",
			"headers": "",
			"method": "POST",
			"pathVariables": {},
			"url": "http://213.243.38.94/realtymessage",
			"preRequestScript": null,
			"tests": null,
			"currentHelper": "normal",
			"helperAttributes": "{}",
			"responses": [],
			"collectionId": "327a5436-78c8-4319-42ad-fe3933fc41cc"
		},
		{
			"folder": null,
			"id": "2d98195f-a630-66da-4ef6-6a6097bd22db",
			"name": "dev => realtyvisit",
			"dataMode": "raw",
			"data": [],
			"rawModeData": "{\"categoryId\":1000020302,\"districtId\":20813,\"realtyId\":10844966}",
			"descriptionFormat": null,
			"description": "",
			"headers": "",
			"method": "POST",
			"pathVariables": {},
			"url": "http://192.168.100.55:8080/realtyvisit",
			"preRequestScript": null,
			"tests": null,
			"currentHelper": "normal",
			"helperAttributes": "{}",
			"responses": [],
			"collectionId": "327a5436-78c8-4319-42ad-fe3933fc41cc"
		},
		{
			"id": "33b91c59-2a1d-3947-7679-8541fd637574",
			"headers": "",
			"url": "192.168.100.55:8080/realtyfavorite",
			"preRequestScript": null,
			"pathVariables": {},
			"method": "POST",
			"data": [],
			"dataMode": "raw",
			"tests": null,
			"currentHelper": "normal",
			"helperAttributes": {},
			"time": 1472408043070,
			"name": "dev => realtyfavorite",
			"description": "",
			"collectionId": "327a5436-78c8-4319-42ad-fe3933fc41cc",
			"responses": [],
			"rawModeData": "{ \"realtyId\": 10844966, \"categoryId\": 1000010101, \"districtId\": 12918, \"isAdded\": true, \"createdDate\": \"2016-08-17\" }"
		},
		{
			"id": "47a20537-3a21-d7b8-544c-6c19795740c6",
			"headers": "Content-Type: application/json\n",
			"url": "192.168.100.55:8080/realtyinteraction",
			"preRequestScript": "",
			"pathVariables": {},
			"method": "POST",
			"data": [],
			"dataMode": "raw",
			"tests": null,
			"currentHelper": "normal",
			"helperAttributes": {},
			"time": 1472401801046,
			"name": "dev => realtyinteraction one",
			"description": "",
			"collectionId": "327a5436-78c8-4319-42ad-fe3933fc41cc",
			"responses": [],
			"rawModeData": "{\n \"realtyIdList\":[10844966]\n}\n\n"
		},
		{
			"id": "55066a0e-a8fa-e790-9dbf-43a0c6cf4424",
			"headers": "",
			"url": "http://localhost:8080/realtyvisit",
			"preRequestScript": null,
			"pathVariables": {},
			"method": "POST",
			"data": [],
			"dataMode": "raw",
			"tests": null,
			"currentHelper": "normal",
			"helperAttributes": {},
			"time": 1472467189148,
			"name": "loc => realtyvisit",
			"description": "",
			"collectionId": "327a5436-78c8-4319-42ad-fe3933fc41cc",
			"responses": [],
			"rawModeData": "{\"categoryId\":1000020302,\"districtId\":20813,\"realtyId\":22570620}"
		},
		{
			"folder": null,
			"id": "61a5d036-52c4-51bb-cbb0-7bd92d528d90",
			"name": "loc => realtyinteraction",
			"dataMode": "raw",
			"data": [],
			"rawModeData": "{\n \"realtyIdList\":[19728960, 19732828, 19619148,19814346,19634283,19850545,19864007,2797630,19806415,19867944,19563241,19600368,19694037,19732872,19903544, 19781378,19576166,19796029,19576044,19889981]\n}\n\n",
			"descriptionFormat": null,
			"description": "",
			"headers": "Content-Type: application/json\n",
			"method": "POST",
			"pathVariables": {},
			"url": "http://localhost:8080/realtyinteraction",
			"preRequestScript": "",
			"tests": null,
			"currentHelper": "normal",
			"helperAttributes": "{}",
			"responses": [],
			"collectionId": "327a5436-78c8-4319-42ad-fe3933fc41cc"
		},
		{
			"id": "6f1dfe12-9103-705f-aefd-978ee02378f5",
			"headers": "",
			"url": "http://213.243.38.94/realtyfavorite",
			"preRequestScript": null,
			"pathVariables": {},
			"method": "POST",
			"data": [],
			"dataMode": "raw",
			"tests": null,
			"currentHelper": "normal",
			"helperAttributes": {},
			"time": 1472401143629,
			"name": "prod => realtyfavorite",
			"description": "",
			"collectionId": "327a5436-78c8-4319-42ad-fe3933fc41cc",
			"responses": [],
			"rawModeData": "{ \"realtyId\": 10844966, \"categoryId\": 1000010101, \"districtId\": 12918, \"isAdded\": true, \"createdDate\": \"2016-08-15\" }"
		},
		{
			"id": "94bcce50-e4d0-cf7e-2131-fe5cd29e194e",
			"headers": "Content-Type: application/json\n",
			"url": "http://localhost:8080/realtyinteraction",
			"preRequestScript": "",
			"pathVariables": {},
			"method": "POST",
			"data": [],
			"dataMode": "raw",
			"tests": null,
			"currentHelper": "normal",
			"helperAttributes": {},
			"time": 1472467175838,
			"name": "loc => realtyinteraction one",
			"description": "",
			"collectionId": "327a5436-78c8-4319-42ad-fe3933fc41cc",
			"responses": [],
			"rawModeData": "{\n \"realtyIdList\":[22570620]\n}\n\n"
		},
		{
			"id": "cedd4eff-8fa5-f719-1da4-58293edffb0f",
			"headers": "",
			"url": "http://localhost:8080/realtymessage",
			"preRequestScript": null,
			"pathVariables": {},
			"method": "POST",
			"data": [],
			"dataMode": "raw",
			"tests": null,
			"currentHelper": "normal",
			"helperAttributes": {},
			"time": 1472467182701,
			"name": "loc => realtymessage",
			"description": "",
			"collectionId": "327a5436-78c8-4319-42ad-fe3933fc41cc",
			"responses": [],
			"rawModeData": "{\"categoryId\":1000020302,\"districtId\":20813,\"realtyId\":22570620}"
		},
		{
			"folder": null,
			"id": "cf0de01e-52e2-1a72-9c8b-714d5efd4bcc",
			"name": "dev => realtyinteraction",
			"dataMode": "raw",
			"data": [],
			"rawModeData": "{\n \"realtyIdList\":[19728960, 19732828, 19619148,19814346,19634283,19850545,19864007,2797630,19806415,19867944,19563241,19600368,19694037,19732872,19903544, 19781378,19576166,19796029,19576044,19889981]\n}\n\n",
			"descriptionFormat": null,
			"description": "",
			"headers": "Content-Type: application/json\n",
			"method": "POST",
			"pathVariables": {},
			"url": "192.168.100.55:8080/realtyinteraction",
			"preRequestScript": "",
			"tests": null,
			"currentHelper": "normal",
			"helperAttributes": "{}",
			"responses": [],
			"collectionId": "327a5436-78c8-4319-42ad-fe3933fc41cc"
		},
		{
			"id": "e911865b-d1d8-a198-c7a4-f341b2f48419",
			"headers": "",
			"url": "http://localhost:8080/realtyfavorite",
			"preRequestScript": null,
			"pathVariables": {},
			"method": "POST",
			"data": [],
			"dataMode": "raw",
			"tests": null,
			"currentHelper": "normal",
			"helperAttributes": {},
			"time": 1472467197237,
			"name": "loc => realtyfavorite",
			"description": "",
			"collectionId": "327a5436-78c8-4319-42ad-fe3933fc41cc",
			"responses": [],
			"rawModeData": "{ \"realtyId\": 22570620, \"categoryId\": 1000010101, \"districtId\": 12918, \"isAdded\": true, \"createdDate\": \"2016-08-17\" }"
		},
		{
			"folder": null,
			"id": "ed03bc61-4b61-4403-7633-00f34e2d35a2",
			"name": "prod => realtyvisit",
			"dataMode": "raw",
			"data": [],
			"rawModeData": "{\"categoryId\":1000020302,\"districtId\":20813,\"realtyId\":10844966}",
			"descriptionFormat": null,
			"description": "",
			"headers": "",
			"method": "POST",
			"pathVariables": {},
			"url": "http://213.243.38.94/realtyvisit",
			"preRequestScript": null,
			"tests": null,
			"currentHelper": "normal",
			"helperAttributes": "{}",
			"responses": [],
			"collectionId": "327a5436-78c8-4319-42ad-fe3933fc41cc"
		},
		{
			"id": "f97885b6-f2fd-5277-3287-2dc996738d6f",
			"headers": "",
			"url": "http://192.168.100.55:8080/realtymessage",
			"preRequestScript": null,
			"pathVariables": {},
			"method": "POST",
			"data": [],
			"dataMode": "raw",
			"tests": null,
			"currentHelper": "normal",
			"helperAttributes": {},
			"time": 1472401804855,
			"name": "dev => realtymessage",
			"description": "",
			"collectionId": "327a5436-78c8-4319-42ad-fe3933fc41cc",
			"responses": [],
			"rawModeData": "{\"categoryId\":1000020302,\"districtId\":20813,\"realtyId\":10844966}"
		},
		{
			"folder": null,
			"id": "fdab993d-854a-c1f5-5c59-0456c023aa48",
			"name": "prod => realtyinteraction",
			"dataMode": "raw",
			"data": [],
			"rawModeData": "{\n \"realtyIdList\":[19728960, 19732828, 19619148,19814346,19634283,19850545,19864007,2797630,19806415,19867944,19563241,19600368,19694037,19732872,19903544, 19781378,19576166,19796029,19576044,19889981]\n}\n\n",
			"descriptionFormat": null,
			"description": "",
			"headers": "Content-Type: application/json\n",
			"method": "POST",
			"pathVariables": {},
			"url": "213.243.38.94/realtyinteraction",
			"preRequestScript": "",
			"tests": null,
			"currentHelper": "normal",
			"helperAttributes": "{}",
			"responses": [],
			"collectionId": "327a5436-78c8-4319-42ad-fe3933fc41cc"
		}
	]
}